%YAML 1.1
%TAG !u! tag:unity3d.com,2011:
--- !u!1045 &1
EditorBuildSettings:
  m_ObjectHideFlags: 0
  serializedVersion: 2
  m_Scenes:
  - enabled: 1
    path: Assets/Scenes/Home.unity
    guid: 2141402cd67723d4faf2534ddbda0751
  - enabled: 1
    path: Assets/Projects/UnityMovement/UnityMovement.unity
    guid: 3f0ca9324d9ca424ba8864752035c3e9
  - enabled: 1
    path: Assets/Projects/UnityMovement/TranslateMethod/UnityMovementTranslate.unity
    guid: f3eab4b4f3359b64e97a9c08440d67fa
  - enabled: 1
    path: Assets/Projects/UnityMovement/RigidBodyAddForceMethod/UnityMovementRigidBodyAddForce.unity
    guid: 03f87aeaee0a1d24aa0185c844e59a96
  - enabled: 1
    path: Assets/Projects/UnityMovement/RigidBodyVelocityMethod/UnityMovementRigidBodyVelocity.unity
    guid: 946fa7eead3aed6409b555d65d26abdc
  - enabled: 1
    path: Assets/Projects/UnityMovement/RigidBodyMovePositionMethod/UnityMovementRigidBodyMovePosition.unity
    guid: 390da946fbc7fba4ba11c61dfaca164e
  - enabled: 1
    path: Assets/Projects/Avalanche/Avalanche.unity
    guid: 683f41d49a0d99644bb90e28c5af1534
  - enabled: 1
    path: Assets/Projects/CoinFlip/CoinFlip.unity
    guid: 44785a71cbf85624fb7653bd2eb44e6e
  - enabled: 1
    path: Assets/Projects/TopDownCar/TopDownCar.unity
    guid: 49e9f0580b26d9b4aa24765bc16c0896
  - enabled: 1
    path: Assets/Projects/SpriteSheets/SpriteSheets.unity
    guid: 850e86050846b334880c1a91fe01fe2d
  - enabled: 1
    path: Assets/Projects/PlatformMovement/PlatformMovement.unity
    guid: b6f579af03a803343b6a95048b86032f
  - enabled: 1
    path: Assets/Projects/CollisionDetection/CollisionDetection.unity
    guid: 8c494ff5083627146a1ff07199cf3480
  - enabled: 1
    path: Assets/Projects/PhysicsBodysTypes/PhysicsBodysTypes.unity
    guid: ca619da014b2cd94c8b77a20ad349376
  m_configObjects: {}
